…
``` r
# Gives number of 0 values, type of data, and number of unique values
as_tibble(status(spotify))
```

    ## # A tibble: 26 × 9
    ##    variable     q_zeros    p_zeros  q_na     p_na q_inf p_inf type      unique
    ##    <chr>          <int>      <dbl> <int>    <dbl> <int> <dbl> <chr>      <dbl>
    ##  1 album_uri          0 0              0 0            0     0 character 276883
    ##  2 artist_uri         0 0              0 0            0     0 character 208526
    ##  3 artist_name        0 0           2243 0.000743     0     0 character 202171
    ##  4 album_name        13 0.00000430  2239 0.000741     0     0 character 229851
    ##  5 release_date       0 0              0 0            0     0 character  12032
    ##  6 disc_number        0 0              0 0            0     0 numeric       63
    ##  7 popularity   1391053 0.461          0 0            0     0 numeric       90
    ##  8 track_number       0 0              0 0            0     0 numeric      666
    ##  9 duration           0 0              0 0            0     0 numeric   323002
    ## 10 explicit     2779911 0.920          0 0            0     0 logical        2
    ## # … with 16 more rows
…
``` r
spotify %>% 
  filter(loudness < -50) %>% 
  select(track_name, artist_name, loudness) %>% 
  arrange(desc(loudness))
```

    ## # A tibble: 495 × 3
    ##    track_name                                       artist_name         loudness
    ##    <chr>                                            <chr>                  <dbl>
    ##  1 9027 KM                                          OK Go                  -50.0
    ##  2 Madama Butterfly: Humming Chorus                 Slovak Philharmoni…    -50.1
    ##  3 Relaxing Pink Noise                              Latium                 -50.1
    ##  4 Madame Butterfly, 1. Akt: Vogliatemi bene (Mona… Giacomo Puccini        -50.1
    ##  5 Dulled White Noise                               Lila Om                -50.2
    ##  6 Hamburglers Happy Hamburger Palace               D.R.I.                 -50.2
    ##  7 L-R Noise                                        Lübecker               -50.2
    ##  8 -                                                Kendal Johansson       -50.3
    ##  9 Copy Paste Noise                                 The 375                -50.3
    ## 10 Alone at Sea                                     Ben Sollee             -50.4
    ## # … with 485 more rows
…
``` r
spotify %>% 
  filter(tempo > 200) %>% 
  select(track_name, artist_name, tempo) %>% 
  arrange(desc(tempo))
```

    ## # A tibble: 20,308 × 3
    ##    track_name                                         artist_name  tempo
    ##    <chr>                                              <chr>        <dbl>
    ##  1 Rummelboogie - Rich Vom Dorf Remix                 Audio Stunts  250.
    ##  2 Requiem of a Dream                                 Johnny D      250.
    ##  3 To the Rhythm - Ismael Rivas & Oscar de Rivera Mix Angel Moraes  250.
    ##  4 Travieso - Carlos Sánchez & Dj Ray Remix           Jose Armas    250.
    ##  5 Degas                                              DRWN.         249.
    ##  6 Life Goes On - Jimpster Remix                      Lo:rise       249.
    ##  7 Von der Klippe fallen - Harvey McKay Remix         Max Cooper    248.
    ##  8 Sofi Needs A Ladder - Pig&Dan Remix                deadmau5      248.
    ##  9 If She Is a He                                     Krause Duo    248.
    ## 10 Loop Ya                                            Third Deck    248.
    ## # … with 20,298 more rows
…
``` r
# Selecting the columns : names, artists and duration_s that have a duration of more than 2 seconds.
spotify %>% 
  filter(duration_s < 2) %>% 
  select(track_name, artist_name, duration_s) %>% 
  arrange(desc(duration_s))
```

    ## # A tibble: 52 × 3
    ##    track_name                              artist_name                duration_s
    ##    <chr>                                   <chr>                      <Duration>
    ##  1 Tantra                                  Orgasm Sounds              1.976s    
    ##  2 Funny Fart 6                            Fart Sound Effects         1.973s    
    ##  3 Smash 3 - Scary Halloween Sound Effects Halloween Sound Effects    1.947s    
    ##  4 Bonus Track Intro                       Jim Guthrie                1.908s    
    ##  5 We Are Young - Dance Remix              DJ Dee Bee & The Bee Zee … 1.857s    
    ##  6 Rocco Girlfriend                        Orgasm Sounds              1.836s    
    ##  7 Screams Male 3                          Royalty Free Music         1.828s    
    ##  8 Girl Orgasm                             Orgasm Sounds              1.819s    
    ##  9 Bubbling and Boiling Over a Fire        Halloween Sound Effects M… 1.817s    
    ## 10 Pleasure                                Orgasm Sounds              1.791s    
    ## # … with 42 more rows

``` r
# Some data are incorrect here; tracks are not this short
# Some songs are really this short
```

``` r
# Selecting the columns : names, artists and duration_s that have a duration of more than 2 seconds.
spotify %>% 
  filter(year < 1500) %>% 
  select(track_name, artist_name, year) %>% 
  arrange(desc(year))
```

    ## # A tibble: 110 × 3
    ##    track_name             artist_name year 
    ##    <chr>                  <chr>       <chr>
    ##  1 Mother Superior        Varien      0013 
    ##  2 Welcome To Hell        Varien      0013 
    ##  3 Shadow People          Varien      0013 
    ##  4 Death Call             Varien      0013 
    ##  5 Scrap Metal            Varien      0013 
    ##  6 Technical Difficulties Varien      0013 
    ##  7 Future Funk            Varien      0013 
    ##  8 Meteorite              Varien      0013 
    ##  9 Schizophrenia          Varien      0013 
    ## 10 The Sickness           Varien      0013 
    ## # … with 100 more rows
…
